{"failedCount":1,"prefixedPath":"classpath:features\/get_user.feature","packageQualifiedName":"features.get_user","loopIndex":-1,"relativePath":"features\/get_user.feature","scenarioResults":[{"sectionIndex":0,"stepResults":[{"result":{"nanos":697008800,"millis":697.0088,"status":"passed"},"step":{"line":6,"prefix":"*","index":0,"text":"def createUser = call read(\"classpath:\/\/features\/\/create_user.feature\")"},"callResults":[{"failedCount":0,"prefixedPath":"classpath:features\/create_user.feature","packageQualifiedName":"features.create_user","loopIndex":-1,"relativePath":"features\/create_user.feature","scenarioResults":[{"sectionIndex":0,"stepResults":[{"result":{"nanos":2279600,"millis":2.2796,"status":"passed"},"step":{"background":true,"line":4,"prefix":"*","index":0,"text":"def body = read(\"classpath:\/\/json\/\/create_user.json\")"}},{"result":{"nanos":188200,"millis":0.1882,"status":"passed"},"step":{"line":7,"prefix":"Given","index":0,"text":"url host"}},{"result":{"nanos":112800,"millis":0.1128,"status":"passed"},"step":{"line":8,"prefix":"And","index":1,"text":"path '\/users'"}},{"result":{"nanos":126100,"millis":0.1261,"status":"passed"},"step":{"line":9,"prefix":"And","index":2,"text":"header Content-Type = \"application\/json\""}},{"result":{"nanos":94700,"millis":0.0947,"status":"passed"},"step":{"line":10,"prefix":"And","index":3,"text":"header Accept = \"application\/json\""}},{"result":{"nanos":83400,"millis":0.0834,"status":"passed"},"step":{"line":11,"prefix":"And","index":4,"text":"request body"}},{"result":{"nanos":684772700,"millis":684.7727,"status":"passed"},"step":{"line":12,"prefix":"When","index":5,"text":"method post"}},{"result":{"nanos":13800,"millis":0.0138,"status":"passed"},"step":{"line":13,"prefix":"Then","index":6,"text":"status 201"}},{"result":{"nanos":1825300,"millis":1.8253,"status":"passed"},"step":{"line":14,"prefix":"And","index":7,"text":"print response"},"stepLog":"13:03:41.580 [print] {\n  \"name\": \"morpheus\",\n  \"job\": \"leader\",\n  \"id\": \"389\",\n  \"createdAt\": \"2024-08-03T07:33:41.852Z\"\n}\n \n"}],"executorName":"main","line":6,"name":"Verify user can create a user","description":"","durationMillis":689.4966,"startTime":1722670420889,"failed":false,"refId":"[1:6]","endTime":1722670421580,"exampleIndex":-1}],"callDepth":1,"name":"Validate the post request","description":"","resultDate":"2024-08-03 01:03:42 PM","durationMillis":689.4966,"passedCount":1}]},{"result":{"nanos":141900,"millis":0.1419,"status":"passed"},"step":{"line":7,"prefix":"Given","index":1,"text":"url host"}},{"result":{"nanos":743700,"millis":0.7437,"status":"passed"},"step":{"line":8,"prefix":"And","index":2,"text":"path '\/users\/'+createUser.response.id"}},{"result":{"nanos":566745200,"millis":566.7452,"status":"passed"},"step":{"line":9,"prefix":"When","index":3,"text":"method get"}},{"result":{"nanos":235400,"errorMessage":"status code was: 404, expected: 200, response time in milliseconds: 565, url: https:\/\/reqres.in\/api\/users\/389, response: \n{}\nclasspath:features\/get_user.feature:10","millis":0.2354,"status":"failed"},"step":{"line":10,"prefix":"Then","index":4,"text":"status 200"},"stepLog":"13:03:42.150 classpath:features\/get_user.feature:10\nThen status 200\nstatus code was: 404, expected: 200, response time in milliseconds: 565, url: https:\/\/reqres.in\/api\/users\/389, response: \n{}\nclasspath:features\/get_user.feature:10\n"},{"result":{"nanos":0,"millis":0.0,"status":"skipped"},"step":{"line":11,"prefix":"And","index":5,"text":"print response"}}],"line":4,"description":"","durationMillis":1264.875,"failed":true,"error":"status code was: 404, expected: 200, response time in milliseconds: 565, url: https:\/\/reqres.in\/api\/users\/389, response: \n{}\nclasspath:features\/get_user.feature:10","executorName":"main","name":"Verify user can get a user","startTime":1722670420882,"refId":"[1:4]","endTime":1722670422150,"exampleIndex":-1},{"sectionIndex":1,"stepResults":[{"result":{"nanos":220200,"millis":0.2202,"status":"passed"},"step":{"line":14,"prefix":"Given","index":0,"text":"url host"}},{"result":{"nanos":390800,"millis":0.3908,"status":"passed"},"step":{"line":15,"prefix":"And","index":1,"text":"path '\/users'"}},{"result":{"nanos":245751600,"millis":245.7516,"status":"passed"},"step":{"line":16,"prefix":"When","index":2,"text":"method get"}},{"result":{"nanos":10000,"millis":0.01,"status":"passed"},"step":{"line":17,"prefix":"Then","index":3,"text":"status 200"}},{"result":{"nanos":1136900,"millis":1.1369,"status":"passed"},"step":{"line":18,"prefix":"And","index":4,"text":"print response"},"stepLog":"13:03:42.415 [print] {\n  \"page\": 1,\n  \"per_page\": 6,\n  \"total\": 12,\n  \"total_pages\": 2,\n  \"data\": [\n    {\n      \"id\": 1,\n      \"email\": \"george.bluth@reqres.in\",\n      \"first_name\": \"George\",\n      \"last_name\": \"Bluth\",\n      \"avatar\": \"https:\/\/reqres.in\/img\/faces\/1-image.jpg\"\n    },\n    {\n      \"id\": 2,\n      \"email\": \"janet.weaver@reqres.in\",\n      \"first_name\": \"Janet\",\n      \"last_name\": \"Weaver\",\n      \"avatar\": \"https:\/\/reqres.in\/img\/faces\/2-image.jpg\"\n    },\n    {\n      \"id\": 3,\n      \"email\": \"emma.wong@reqres.in\",\n      \"first_name\": \"Emma\",\n      \"last_name\": \"Wong\",\n      \"avatar\": \"https:\/\/reqres.in\/img\/faces\/3-image.jpg\"\n    },\n    {\n      \"id\": 4,\n      \"email\": \"eve.holt@reqres.in\",\n      \"first_name\": \"Eve\",\n      \"last_name\": \"Holt\",\n      \"avatar\": \"https:\/\/reqres.in\/img\/faces\/4-image.jpg\"\n    },\n    {\n      \"id\": 5,\n      \"email\": \"charles.morris@reqres.in\",\n      \"first_name\": \"Charles\",\n      \"last_name\": \"Morris\",\n      \"avatar\": \"https:\/\/reqres.in\/img\/faces\/5-image.jpg\"\n    },\n    {\n      \"id\": 6,\n      \"email\": \"tracey.ramos@reqres.in\",\n      \"first_name\": \"Tracey\",\n      \"last_name\": \"Ramos\",\n      \"avatar\": \"https:\/\/reqres.in\/img\/faces\/6-image.jpg\"\n    }\n  ],\n  \"support\": {\n    \"url\": \"https:\/\/reqres.in\/#support-heading\",\n    \"text\": \"To keep ReqRes free, contributions towards server costs are appreciated!\"\n  }\n}\n \n"}],"executorName":"main","line":13,"name":"Verify user can get list of user","description":"","durationMillis":247.5095,"startTime":1722670422166,"failed":false,"refId":"[2:13]","endTime":1722670422415,"exampleIndex":-1}],"callDepth":0,"name":"Validate the get request","description":"","resultDate":"2024-08-03 01:03:42 PM","durationMillis":1512.3845,"passedCount":1}