[{"line":1,"elements":[{"start_timestamp":"2024-08-03T07:33:40.882Z","line":4,"name":"Verify user can get a user","description":"","id":"verify-user-can-get-a-user","type":"scenario","keyword":"Scenario","steps":[{"name":"def createUser = call read(\"classpath:\/\/features\/\/create_user.feature\")","result":{"duration":697008800,"status":"passed"},"match":{"location":"karate","arguments":[]},"keyword":"*","line":6},{"name":"features\/create_user.feature","result":{"duration":0,"status":"passed"},"match":{"location":"karate","arguments":[]},"keyword":"","line":6},{"name":"def body = read(\"classpath:\/\/json\/\/create_user.json\")","result":{"duration":2279600,"status":"passed"},"match":{"location":"karate","arguments":[]},"keyword":"> *","line":4},{"name":"url host","result":{"duration":188200,"status":"passed"},"match":{"location":"karate","arguments":[]},"keyword":"> Given","line":7},{"name":"path '\/users'","result":{"duration":112800,"status":"passed"},"match":{"location":"karate","arguments":[]},"keyword":"> And","line":8},{"name":"header Content-Type = \"application\/json\"","result":{"duration":126100,"status":"passed"},"match":{"location":"karate","arguments":[]},"keyword":"> And","line":9},{"name":"header Accept = \"application\/json\"","result":{"duration":94700,"status":"passed"},"match":{"location":"karate","arguments":[]},"keyword":"> And","line":10},{"name":"request body","result":{"duration":83400,"status":"passed"},"match":{"location":"karate","arguments":[]},"keyword":"> And","line":11},{"name":"method post","result":{"duration":684772700,"status":"passed"},"match":{"location":"karate","arguments":[]},"keyword":"> When","line":12},{"name":"status 201","result":{"duration":13800,"status":"passed"},"match":{"location":"karate","arguments":[]},"keyword":"> Then","line":13},{"name":"print response","result":{"duration":1825300,"status":"passed"},"match":{"location":"karate","arguments":[]},"keyword":"> And","line":14,"doc_string":{"content_type":"","value":"13:03:41.580 [print] {\n  \"name\": \"morpheus\",\n  \"job\": \"leader\",\n  \"id\": \"389\",\n  \"createdAt\": \"2024-08-03T07:33:41.852Z\"\n}\n \n","line":14}},{"name":"url host","result":{"duration":141900,"status":"passed"},"match":{"location":"karate","arguments":[]},"keyword":"Given","line":7},{"name":"path '\/users\/'+createUser.response.id","result":{"duration":743700,"status":"passed"},"match":{"location":"karate","arguments":[]},"keyword":"And","line":8},{"name":"method get","result":{"duration":566745200,"status":"passed"},"match":{"location":"karate","arguments":[]},"keyword":"When","line":9},{"name":"status 200","result":{"duration":235400,"error_message":"status code was: 404, expected: 200, response time in milliseconds: 565, url: https:\/\/reqres.in\/api\/users\/389, response: \n{}\nclasspath:features\/get_user.feature:10","status":"failed"},"match":{"location":"karate","arguments":[]},"keyword":"Then","line":10,"doc_string":{"content_type":"","value":"13:03:42.150 classpath:features\/get_user.feature:10\nThen status 200\nstatus code was: 404, expected: 200, response time in milliseconds: 565, url: https:\/\/reqres.in\/api\/users\/389, response: \n{}\nclasspath:features\/get_user.feature:10\n","line":10}},{"name":"print response","result":{"duration":0,"status":"skipped"},"match":{"location":"karate","arguments":[]},"keyword":"And","line":11}],"tags":[]},{"start_timestamp":"2024-08-03T07:33:42.166Z","line":13,"name":"Verify user can get list of user","description":"","id":"verify-user-can-get-list-of-user","type":"scenario","keyword":"Scenario","steps":[{"name":"url host","result":{"duration":220200,"status":"passed"},"match":{"location":"karate","arguments":[]},"keyword":"Given","line":14},{"name":"path '\/users'","result":{"duration":390800,"status":"passed"},"match":{"location":"karate","arguments":[]},"keyword":"And","line":15},{"name":"method get","result":{"duration":245751600,"status":"passed"},"match":{"location":"karate","arguments":[]},"keyword":"When","line":16},{"name":"status 200","result":{"duration":10000,"status":"passed"},"match":{"location":"karate","arguments":[]},"keyword":"Then","line":17},{"name":"print response","result":{"duration":1136900,"status":"passed"},"match":{"location":"karate","arguments":[]},"keyword":"And","line":18,"doc_string":{"content_type":"","value":"13:03:42.415 [print] {\n  \"page\": 1,\n  \"per_page\": 6,\n  \"total\": 12,\n  \"total_pages\": 2,\n  \"data\": [\n    {\n      \"id\": 1,\n      \"email\": \"george.bluth@reqres.in\",\n      \"first_name\": \"George\",\n      \"last_name\": \"Bluth\",\n      \"avatar\": \"https:\/\/reqres.in\/img\/faces\/1-image.jpg\"\n    },\n    {\n      \"id\": 2,\n      \"email\": \"janet.weaver@reqres.in\",\n      \"first_name\": \"Janet\",\n      \"last_name\": \"Weaver\",\n      \"avatar\": \"https:\/\/reqres.in\/img\/faces\/2-image.jpg\"\n    },\n    {\n      \"id\": 3,\n      \"email\": \"emma.wong@reqres.in\",\n      \"first_name\": \"Emma\",\n      \"last_name\": \"Wong\",\n      \"avatar\": \"https:\/\/reqres.in\/img\/faces\/3-image.jpg\"\n    },\n    {\n      \"id\": 4,\n      \"email\": \"eve.holt@reqres.in\",\n      \"first_name\": \"Eve\",\n      \"last_name\": \"Holt\",\n      \"avatar\": \"https:\/\/reqres.in\/img\/faces\/4-image.jpg\"\n    },\n    {\n      \"id\": 5,\n      \"email\": \"charles.morris@reqres.in\",\n      \"first_name\": \"Charles\",\n      \"last_name\": \"Morris\",\n      \"avatar\": \"https:\/\/reqres.in\/img\/faces\/5-image.jpg\"\n    },\n    {\n      \"id\": 6,\n      \"email\": \"tracey.ramos@reqres.in\",\n      \"first_name\": \"Tracey\",\n      \"last_name\": \"Ramos\",\n      \"avatar\": \"https:\/\/reqres.in\/img\/faces\/6-image.jpg\"\n    }\n  ],\n  \"support\": {\n    \"url\": \"https:\/\/reqres.in\/#support-heading\",\n    \"text\": \"To keep ReqRes free, contributions towards server costs are appreciated!\"\n  }\n}\n \n","line":18}}],"tags":[]}],"name":"features\/get_user.feature","description":"Validate the get request","id":"validate-the-get-request","keyword":"Feature","uri":"features\/get_user.feature"}]